<mxfile host="app.diagrams.net" modified="2024-03-20T14:04:18.880Z" agent="Mozilla/5.0 (Windows NT 10.0; Win64; x64) AppleWebKit/537.36 (KHTML, like Gecko) Chrome/122.0.0.0 Safari/537.36" etag="a6KKcl7fI8NrkuwUoNeN" version="24.0.7" type="device">
  <diagram name="Page-1" id="ElBKsMQr8rjBWkv7-eN5">
    <mxGraphModel dx="4000" dy="2018" grid="1" gridSize="10" guides="1" tooltips="1" connect="1" arrows="1" fold="1" page="1" pageScale="1" pageWidth="850" pageHeight="1100" math="0" shadow="0">
      <root>
        <mxCell id="0" />
        <mxCell id="1" parent="0" />
        <mxCell id="ImbisbdKscFU-QloxBs--1" value="Location" style="swimlane;childLayout=stackLayout;horizontal=1;startSize=50;horizontalStack=0;rounded=1;fontSize=14;fontStyle=0;strokeWidth=2;resizeParent=0;resizeLast=1;shadow=0;dashed=0;align=center;arcSize=4;whiteSpace=wrap;html=1;" parent="1" vertex="1">
          <mxGeometry x="-70" y="-360" width="160" height="150" as="geometry" />
        </mxCell>
        <mxCell id="ImbisbdKscFU-QloxBs--2" value="+LocationID&lt;div&gt;+Country&lt;/div&gt;&lt;div&gt;+City&lt;/div&gt;&lt;div&gt;+Address&lt;/div&gt;&lt;div&gt;+ChainID&lt;br&gt;&lt;div&gt;&lt;br&gt;&lt;div&gt;&lt;br&gt;&lt;/div&gt;&lt;/div&gt;&lt;/div&gt;" style="align=left;strokeColor=none;fillColor=none;spacingLeft=4;fontSize=12;verticalAlign=top;resizable=0;rotatable=0;part=1;html=1;" parent="ImbisbdKscFU-QloxBs--1" vertex="1">
          <mxGeometry y="50" width="160" height="100" as="geometry" />
        </mxCell>
        <mxCell id="ImbisbdKscFU-QloxBs--3" value="Room Booking" style="swimlane;childLayout=stackLayout;horizontal=1;startSize=50;horizontalStack=0;rounded=1;fontSize=14;fontStyle=0;strokeWidth=2;resizeParent=0;resizeLast=1;shadow=0;dashed=0;align=center;arcSize=4;whiteSpace=wrap;html=1;" parent="1" vertex="1">
          <mxGeometry x="-560" y="-210" width="160" height="180" as="geometry" />
        </mxCell>
        <mxCell id="ImbisbdKscFU-QloxBs--4" value="+BookingID&lt;div&gt;&lt;div&gt;+GuestID&lt;/div&gt;&lt;div&gt;+CheckInDate&lt;/div&gt;&lt;div&gt;+CheckOutDate&lt;/div&gt;&lt;div&gt;+DateOfPurchase&lt;/div&gt;&lt;div&gt;+HotelID&amp;nbsp;&lt;/div&gt;&lt;div&gt;+RoomNumber&lt;/div&gt;&lt;div&gt;+NumberOfGuests&lt;/div&gt;&lt;div&gt;&lt;br&gt;&lt;div&gt;&lt;br&gt;&lt;div&gt;&lt;div&gt;&lt;br&gt;&lt;/div&gt;&lt;/div&gt;&lt;/div&gt;&lt;/div&gt;&lt;/div&gt;" style="align=left;strokeColor=none;fillColor=none;spacingLeft=4;fontSize=12;verticalAlign=top;resizable=0;rotatable=0;part=1;html=1;" parent="ImbisbdKscFU-QloxBs--3" vertex="1">
          <mxGeometry y="50" width="160" height="130" as="geometry" />
        </mxCell>
        <mxCell id="ImbisbdKscFU-QloxBs--5" value="Guest" style="swimlane;childLayout=stackLayout;horizontal=1;startSize=50;horizontalStack=0;rounded=1;fontSize=15;fontStyle=0;strokeWidth=2;resizeParent=0;resizeLast=1;shadow=0;dashed=0;align=center;arcSize=4;whiteSpace=wrap;html=1;" parent="1" vertex="1">
          <mxGeometry x="20" y="340" width="160" height="200" as="geometry" />
        </mxCell>
        <mxCell id="ImbisbdKscFU-QloxBs--6" value="+GuestID&lt;div&gt;+FullName&lt;/div&gt;&lt;div&gt;+Phone&lt;/div&gt;&lt;div&gt;+Email&lt;/div&gt;&lt;div&gt;+Adress&lt;/div&gt;&lt;div&gt;+PassportID&lt;/div&gt;&lt;div&gt;+IdentificationNumber&lt;/div&gt;&lt;div&gt;+EnrollmentDate&lt;/div&gt;&lt;div&gt;+MembershipID&lt;/div&gt;" style="align=left;strokeColor=none;fillColor=none;spacingLeft=4;fontSize=12;verticalAlign=top;resizable=0;rotatable=0;part=1;html=1;" parent="ImbisbdKscFU-QloxBs--5" vertex="1">
          <mxGeometry y="50" width="160" height="150" as="geometry" />
        </mxCell>
        <mxCell id="ImbisbdKscFU-QloxBs--17" value="Staff" style="swimlane;childLayout=stackLayout;horizontal=1;startSize=50;horizontalStack=0;rounded=1;fontSize=14;fontStyle=0;strokeWidth=2;resizeParent=0;resizeLast=1;shadow=0;dashed=0;align=center;arcSize=4;whiteSpace=wrap;html=1;" parent="1" vertex="1">
          <mxGeometry x="265" y="210" width="160" height="150" as="geometry" />
        </mxCell>
        <mxCell id="ImbisbdKscFU-QloxBs--18" value="&lt;div&gt;&lt;div&gt;&lt;div&gt;&lt;div&gt;+StaffID&lt;/div&gt;&lt;/div&gt;&lt;/div&gt;&lt;/div&gt;&lt;div&gt;+FullName&lt;/div&gt;&lt;div&gt;+Role&lt;/div&gt;&lt;div&gt;+HotelID&lt;/div&gt;&lt;div&gt;+DepartmentNane&lt;/div&gt;" style="align=left;strokeColor=none;fillColor=none;spacingLeft=4;fontSize=12;verticalAlign=top;resizable=0;rotatable=0;part=1;html=1;" parent="ImbisbdKscFU-QloxBs--17" vertex="1">
          <mxGeometry y="50" width="160" height="100" as="geometry" />
        </mxCell>
        <mxCell id="ImbisbdKscFU-QloxBs--13" value="Hotel" style="swimlane;childLayout=stackLayout;horizontal=1;startSize=50;horizontalStack=0;rounded=1;fontSize=14;fontStyle=0;strokeWidth=2;resizeParent=0;resizeLast=1;shadow=0;dashed=0;align=center;arcSize=4;whiteSpace=wrap;html=1;" parent="1" vertex="1">
          <mxGeometry x="30" y="60" width="160" height="170" as="geometry" />
        </mxCell>
        <mxCell id="ImbisbdKscFU-QloxBs--14" value="+HotelID&lt;div&gt;+Name&lt;/div&gt;&lt;div&gt;&lt;span style=&quot;background-color: initial;&quot;&gt;+LocationID&amp;nbsp;&lt;/span&gt;&lt;/div&gt;&lt;div&gt;&lt;div&gt;+ChainID&lt;br&gt;&lt;div&gt;&lt;div&gt;&lt;br&gt;&lt;/div&gt;&lt;/div&gt;&lt;/div&gt;&lt;/div&gt;" style="align=left;strokeColor=none;fillColor=none;spacingLeft=4;fontSize=12;verticalAlign=top;resizable=0;rotatable=0;part=1;html=1;" parent="ImbisbdKscFU-QloxBs--13" vertex="1">
          <mxGeometry y="50" width="160" height="120" as="geometry" />
        </mxCell>
        <mxCell id="ImbisbdKscFU-QloxBs--32" value="Payment" style="swimlane;childLayout=stackLayout;horizontal=1;startSize=50;horizontalStack=0;rounded=1;fontSize=14;fontStyle=0;strokeWidth=2;resizeParent=0;resizeLast=1;shadow=0;dashed=0;align=center;arcSize=4;whiteSpace=wrap;html=1;" parent="1" vertex="1">
          <mxGeometry x="-390" y="500" width="160" height="160" as="geometry" />
        </mxCell>
        <mxCell id="ImbisbdKscFU-QloxBs--33" value="&lt;div&gt;&lt;div&gt;&lt;div&gt;&lt;div&gt;+PaymentID&lt;/div&gt;&lt;/div&gt;&lt;/div&gt;&lt;/div&gt;&lt;div&gt;+BookingID&lt;/div&gt;&lt;div&gt;+ServiceID&lt;/div&gt;&lt;div&gt;+TotalAmount&lt;/div&gt;&lt;div&gt;+PaymentType&lt;/div&gt;&lt;div&gt;+GuestID&lt;/div&gt;" style="align=left;strokeColor=none;fillColor=none;spacingLeft=4;fontSize=12;verticalAlign=top;resizable=0;rotatable=0;part=1;html=1;" parent="ImbisbdKscFU-QloxBs--32" vertex="1">
          <mxGeometry y="50" width="160" height="110" as="geometry" />
        </mxCell>
        <mxCell id="ImbisbdKscFU-QloxBs--34" value="Inventory Management" style="swimlane;childLayout=stackLayout;horizontal=1;startSize=50;horizontalStack=0;rounded=1;fontSize=14;fontStyle=0;strokeWidth=2;resizeParent=0;resizeLast=1;shadow=0;dashed=0;align=center;arcSize=4;whiteSpace=wrap;html=1;" parent="1" vertex="1">
          <mxGeometry x="265" y="-60" width="160" height="150" as="geometry" />
        </mxCell>
        <mxCell id="ImbisbdKscFU-QloxBs--35" value="&lt;div&gt;&lt;div&gt;&lt;div&gt;&lt;div&gt;+ItemID&amp;nbsp;&lt;/div&gt;&lt;/div&gt;&lt;/div&gt;&lt;/div&gt;&lt;div&gt;+HotelID&lt;/div&gt;&lt;div&gt;+ItemName&lt;/div&gt;&lt;div&gt;+Quantity&lt;/div&gt;&lt;div&gt;+CategoryName&lt;/div&gt;" style="align=left;strokeColor=none;fillColor=none;spacingLeft=4;fontSize=12;verticalAlign=top;resizable=0;rotatable=0;part=1;html=1;" parent="ImbisbdKscFU-QloxBs--34" vertex="1">
          <mxGeometry y="50" width="160" height="100" as="geometry" />
        </mxCell>
        <mxCell id="ImbisbdKscFU-QloxBs--46" value="Guest Preference" style="swimlane;childLayout=stackLayout;horizontal=1;startSize=50;horizontalStack=0;rounded=1;fontSize=14;fontStyle=0;strokeWidth=2;resizeParent=0;resizeLast=1;shadow=0;dashed=0;align=center;arcSize=4;whiteSpace=wrap;html=1;" parent="1" vertex="1">
          <mxGeometry x="-280" y="760" width="160" height="140" as="geometry" />
        </mxCell>
        <mxCell id="ImbisbdKscFU-QloxBs--47" value="&lt;div&gt;&lt;div&gt;&lt;div&gt;&lt;div&gt;+PreferenceID&lt;/div&gt;&lt;/div&gt;&lt;/div&gt;&lt;/div&gt;&lt;div&gt;+LoyaltyLevel&lt;/div&gt;&lt;div&gt;+ServiceID&lt;/div&gt;&lt;div&gt;+GuestID&lt;/div&gt;&lt;div&gt;+MembershipID&lt;/div&gt;&lt;div&gt;&lt;br&gt;&lt;/div&gt;&lt;div&gt;&lt;br&gt;&lt;/div&gt;" style="align=left;strokeColor=none;fillColor=none;spacingLeft=4;fontSize=12;verticalAlign=top;resizable=0;rotatable=0;part=1;html=1;" parent="ImbisbdKscFU-QloxBs--46" vertex="1">
          <mxGeometry y="50" width="160" height="90" as="geometry" />
        </mxCell>
        <mxCell id="ImbisbdKscFU-QloxBs--50" value="" style="edgeStyle=entityRelationEdgeStyle;fontSize=12;html=1;endArrow=ERoneToMany;rounded=0;exitX=1;exitY=0.5;exitDx=0;exitDy=0;entryX=0;entryY=0;entryDx=0;entryDy=0;" parent="1" source="ImbisbdKscFU-QloxBs--4" target="ImbisbdKscFU-QloxBs--14" edge="1">
          <mxGeometry width="100" height="100" relative="1" as="geometry">
            <mxPoint x="170" y="325" as="sourcePoint" />
            <mxPoint x="270" y="225" as="targetPoint" />
          </mxGeometry>
        </mxCell>
        <mxCell id="ImbisbdKscFU-QloxBs--60" value="" style="edgeStyle=entityRelationEdgeStyle;fontSize=12;html=1;endArrow=ERzeroToMany;startArrow=ERmandOne;rounded=0;entryX=1;entryY=0.75;entryDx=0;entryDy=0;exitX=0.25;exitY=0;exitDx=0;exitDy=0;" parent="1" source="ImbisbdKscFU-QloxBs--5" target="ImbisbdKscFU-QloxBs--4" edge="1">
          <mxGeometry width="100" height="100" relative="1" as="geometry">
            <mxPoint x="170" y="345" as="sourcePoint" />
            <mxPoint x="60" y="265" as="targetPoint" />
          </mxGeometry>
        </mxCell>
        <mxCell id="jkNDDFEouQgEQKBxvgv1-2" value="" style="edgeStyle=entityRelationEdgeStyle;fontSize=12;html=1;endArrow=ERoneToMany;startArrow=ERmandOne;rounded=0;entryX=0;entryY=0;entryDx=0;entryDy=0;exitX=1;exitY=0.75;exitDx=0;exitDy=0;" parent="1" source="ImbisbdKscFU-QloxBs--14" target="ImbisbdKscFU-QloxBs--18" edge="1">
          <mxGeometry width="100" height="100" relative="1" as="geometry">
            <mxPoint x="310" y="575" as="sourcePoint" />
            <mxPoint x="410" y="475" as="targetPoint" />
          </mxGeometry>
        </mxCell>
        <mxCell id="jkNDDFEouQgEQKBxvgv1-6" value="" style="edgeStyle=entityRelationEdgeStyle;fontSize=12;html=1;endArrow=ERmandOne;startArrow=ERmandOne;rounded=0;entryX=0.5;entryY=1;entryDx=0;entryDy=0;exitX=0.5;exitY=0;exitDx=0;exitDy=0;" parent="1" source="ImbisbdKscFU-QloxBs--46" target="ImbisbdKscFU-QloxBs--6" edge="1">
          <mxGeometry width="100" height="100" relative="1" as="geometry">
            <mxPoint x="530" y="760" as="sourcePoint" />
            <mxPoint x="630" y="660" as="targetPoint" />
          </mxGeometry>
        </mxCell>
        <mxCell id="jkNDDFEouQgEQKBxvgv1-32" value="Services" style="swimlane;childLayout=stackLayout;horizontal=1;startSize=50;horizontalStack=0;rounded=1;fontSize=14;fontStyle=0;strokeWidth=2;resizeParent=0;resizeLast=1;shadow=0;dashed=0;align=center;arcSize=4;whiteSpace=wrap;html=1;" parent="1" vertex="1">
          <mxGeometry x="-770" y="380" width="160" height="160" as="geometry" />
        </mxCell>
        <mxCell id="jkNDDFEouQgEQKBxvgv1-33" value="&lt;div&gt;&lt;div&gt;&lt;div&gt;&lt;div&gt;&lt;span style=&quot;background-color: initial;&quot;&gt;+ServiceID&lt;/span&gt;&lt;/div&gt;&lt;/div&gt;&lt;/div&gt;&lt;/div&gt;&lt;div&gt;+Date&lt;/div&gt;&lt;div&gt;+GuestID&lt;/div&gt;&lt;div&gt;+HotelID&lt;/div&gt;&lt;div&gt;&lt;span style=&quot;background-color: initial;&quot;&gt;+PlaceName&lt;/span&gt;&lt;br&gt;&lt;/div&gt;&lt;div&gt;&lt;span style=&quot;background-color: initial;&quot;&gt;+ServiceName&lt;/span&gt;&lt;/div&gt;&lt;div&gt;&lt;span style=&quot;background-color: initial;&quot;&gt;+ServicePrice&lt;/span&gt;&lt;/div&gt;" style="align=left;spacingLeft=4;fontSize=12;verticalAlign=top;resizable=0;rotatable=0;part=1;html=1;" parent="jkNDDFEouQgEQKBxvgv1-32" vertex="1">
          <mxGeometry y="50" width="160" height="110" as="geometry" />
        </mxCell>
        <mxCell id="jkNDDFEouQgEQKBxvgv1-37" value="Room" style="swimlane;childLayout=stackLayout;horizontal=1;startSize=50;horizontalStack=0;rounded=1;fontSize=14;fontStyle=0;strokeWidth=2;resizeParent=0;resizeLast=1;shadow=0;dashed=0;align=center;arcSize=4;whiteSpace=wrap;html=1;" parent="1" vertex="1">
          <mxGeometry x="-860" y="-510" width="160" height="150" as="geometry" />
        </mxCell>
        <mxCell id="jkNDDFEouQgEQKBxvgv1-38" value="&lt;div&gt;&lt;div&gt;&lt;div&gt;&lt;div&gt;+RoomNumber&lt;/div&gt;&lt;/div&gt;&lt;/div&gt;&lt;/div&gt;&lt;div&gt;+HotelID&lt;/div&gt;&lt;div&gt;+Availability&lt;/div&gt;&lt;div&gt;+RoomType&lt;/div&gt;&lt;div&gt;+TotalPrice&lt;/div&gt;&lt;div&gt;+ServiceID&lt;/div&gt;" style="align=left;strokeColor=none;fillColor=none;spacingLeft=4;fontSize=12;verticalAlign=top;resizable=0;rotatable=0;part=1;html=1;" parent="jkNDDFEouQgEQKBxvgv1-37" vertex="1">
          <mxGeometry y="50" width="160" height="100" as="geometry" />
        </mxCell>
        <mxCell id="jkNDDFEouQgEQKBxvgv1-39" value="Restaurant Reservation" style="swimlane;childLayout=stackLayout;horizontal=1;startSize=50;horizontalStack=0;rounded=1;fontSize=14;fontStyle=0;strokeWidth=2;resizeParent=0;resizeLast=1;shadow=0;dashed=0;align=center;arcSize=4;whiteSpace=wrap;html=1;" parent="1" vertex="1">
          <mxGeometry x="-665" y="120" width="160" height="190" as="geometry" />
        </mxCell>
        <mxCell id="jkNDDFEouQgEQKBxvgv1-40" value="&lt;div&gt;&lt;div&gt;&lt;div&gt;&lt;div&gt;&lt;span style=&quot;background-color: initial;&quot;&gt;+ReservationID&lt;/span&gt;&lt;/div&gt;&lt;/div&gt;&lt;/div&gt;&lt;/div&gt;&lt;div&gt;+HotelID&lt;/div&gt;&lt;div&gt;+PartySize&lt;/div&gt;&lt;div&gt;+ReservationDate&lt;/div&gt;&lt;div&gt;&lt;span style=&quot;background-color: initial;&quot;&gt;+TimeSlot&lt;/span&gt;&lt;br&gt;&lt;/div&gt;&lt;div&gt;&lt;span style=&quot;background-color: initial;&quot;&gt;+ServiceID&lt;/span&gt;&lt;/div&gt;&lt;div&gt;&lt;span style=&quot;background-color: initial;&quot;&gt;+DinningType&lt;/span&gt;&lt;/div&gt;&lt;div&gt;&lt;span style=&quot;background-color: initial;&quot;&gt;+TotalPrice&lt;/span&gt;&lt;/div&gt;&lt;div&gt;&lt;br&gt;&lt;/div&gt;" style="align=left;strokeColor=none;fillColor=none;spacingLeft=4;fontSize=12;verticalAlign=top;resizable=0;rotatable=0;part=1;html=1;" parent="jkNDDFEouQgEQKBxvgv1-39" vertex="1">
          <mxGeometry y="50" width="160" height="140" as="geometry" />
        </mxCell>
        <mxCell id="jkNDDFEouQgEQKBxvgv1-41" value="Event Reservation" style="swimlane;childLayout=stackLayout;horizontal=1;startSize=50;horizontalStack=0;rounded=1;fontSize=14;fontStyle=0;strokeWidth=2;resizeParent=0;resizeLast=1;shadow=0;dashed=0;align=center;arcSize=4;whiteSpace=wrap;html=1;" parent="1" vertex="1">
          <mxGeometry x="-1070" y="-80" width="160" height="210" as="geometry" />
        </mxCell>
        <mxCell id="jkNDDFEouQgEQKBxvgv1-42" value="&lt;div&gt;&lt;div&gt;&lt;div&gt;&lt;div&gt;&lt;span style=&quot;background-color: initial;&quot;&gt;+EventID&lt;/span&gt;&lt;br&gt;&lt;/div&gt;&lt;/div&gt;&lt;/div&gt;&lt;/div&gt;&lt;div&gt;&lt;span style=&quot;background-color: initial;&quot;&gt;+EvenName&lt;/span&gt;&lt;/div&gt;&lt;div&gt;&lt;span style=&quot;background-color: initial;&quot;&gt;+FullName&lt;/span&gt;&lt;/div&gt;&lt;div&gt;+PartySize&lt;/div&gt;&lt;div&gt;+EventDate&lt;/div&gt;&lt;div&gt;&lt;span style=&quot;background-color: initial;&quot;&gt;+TimeSlot&lt;/span&gt;&lt;/div&gt;&lt;div&gt;&lt;span style=&quot;background-color: initial;&quot;&gt;+ServiceID&lt;/span&gt;&lt;/div&gt;&lt;div&gt;&lt;span style=&quot;background-color: initial;&quot;&gt;+HotelID&lt;/span&gt;&lt;/div&gt;&lt;div&gt;&lt;span style=&quot;background-color: initial;&quot;&gt;+TotalPrice&lt;/span&gt;&lt;/div&gt;" style="align=left;strokeColor=none;fillColor=none;spacingLeft=4;fontSize=12;verticalAlign=top;resizable=0;rotatable=0;part=1;html=1;" parent="jkNDDFEouQgEQKBxvgv1-41" vertex="1">
          <mxGeometry y="50" width="160" height="160" as="geometry" />
        </mxCell>
        <mxCell id="IL2eg1wDKQudqtW4gH-I-3" value="Hotel Chain" style="swimlane;childLayout=stackLayout;horizontal=1;startSize=50;horizontalStack=0;rounded=1;fontSize=14;fontStyle=0;strokeWidth=2;resizeParent=0;resizeLast=1;shadow=0;dashed=0;align=center;arcSize=4;whiteSpace=wrap;html=1;" parent="1" vertex="1">
          <mxGeometry x="-300" y="-300" width="160" height="120" as="geometry" />
        </mxCell>
        <mxCell id="IL2eg1wDKQudqtW4gH-I-4" value="+ChainID&lt;div&gt;+Name&lt;/div&gt;" style="align=left;strokeColor=none;fillColor=none;spacingLeft=4;fontSize=12;verticalAlign=top;resizable=0;rotatable=0;part=1;html=1;" parent="IL2eg1wDKQudqtW4gH-I-3" vertex="1">
          <mxGeometry y="50" width="160" height="70" as="geometry" />
        </mxCell>
        <mxCell id="IL2eg1wDKQudqtW4gH-I-9" value="" style="edgeStyle=entityRelationEdgeStyle;fontSize=12;html=1;endArrow=ERmany;rounded=0;exitX=1;exitY=0;exitDx=0;exitDy=0;entryX=0;entryY=0.25;entryDx=0;entryDy=0;" parent="1" source="IL2eg1wDKQudqtW4gH-I-4" target="ImbisbdKscFU-QloxBs--1" edge="1">
          <mxGeometry width="100" height="100" relative="1" as="geometry">
            <mxPoint x="450" y="-360" as="sourcePoint" />
            <mxPoint x="350" y="-130" as="targetPoint" />
            <Array as="points">
              <mxPoint x="580" y="-361" />
              <mxPoint x="570" y="-371" />
              <mxPoint x="540" y="-351" />
              <mxPoint x="640" y="-461" />
            </Array>
          </mxGeometry>
        </mxCell>
        <mxCell id="IL2eg1wDKQudqtW4gH-I-11" value="" style="edgeStyle=entityRelationEdgeStyle;fontSize=12;html=1;endArrow=ERmandOne;startArrow=ERmandOne;rounded=0;entryX=0.5;entryY=1;entryDx=0;entryDy=0;exitX=0.5;exitY=0;exitDx=0;exitDy=0;" parent="1" source="ImbisbdKscFU-QloxBs--32" target="ImbisbdKscFU-QloxBs--4" edge="1">
          <mxGeometry width="100" height="100" relative="1" as="geometry">
            <mxPoint x="-330" y="340" as="sourcePoint" />
            <mxPoint x="-160" y="250" as="targetPoint" />
            <Array as="points">
              <mxPoint x="-160" y="400" />
              <mxPoint x="-170" y="220" />
            </Array>
          </mxGeometry>
        </mxCell>
        <mxCell id="IL2eg1wDKQudqtW4gH-I-12" value="" style="edgeStyle=entityRelationEdgeStyle;fontSize=12;html=1;endArrow=ERzeroToMany;startArrow=ERmandOne;rounded=0;entryX=0;entryY=0.122;entryDx=0;entryDy=0;entryPerimeter=0;exitX=1;exitY=0.75;exitDx=0;exitDy=0;" parent="1" source="jkNDDFEouQgEQKBxvgv1-38" target="ImbisbdKscFU-QloxBs--3" edge="1">
          <mxGeometry width="100" height="100" relative="1" as="geometry">
            <mxPoint x="-605" y="30" as="sourcePoint" />
            <mxPoint x="-505" y="-70" as="targetPoint" />
            <Array as="points">
              <mxPoint x="-575" y="10" />
              <mxPoint x="-525" y="-70" />
            </Array>
          </mxGeometry>
        </mxCell>
        <mxCell id="IL2eg1wDKQudqtW4gH-I-19" value="" style="edgeStyle=entityRelationEdgeStyle;fontSize=12;html=1;endArrow=ERoneToMany;startArrow=ERmandOne;rounded=0;exitX=0.5;exitY=1;exitDx=0;exitDy=0;entryX=0.994;entryY=0.108;entryDx=0;entryDy=0;entryPerimeter=0;" parent="1" source="ImbisbdKscFU-QloxBs--14" target="jkNDDFEouQgEQKBxvgv1-32" edge="1">
          <mxGeometry width="100" height="100" relative="1" as="geometry">
            <mxPoint x="-210" y="220" as="sourcePoint" />
            <mxPoint x="-110" y="120" as="targetPoint" />
            <Array as="points">
              <mxPoint x="-310" y="230" />
            </Array>
          </mxGeometry>
        </mxCell>
        <mxCell id="uq9rbaYfmDos0nCKktpd-2" value="" style="edgeStyle=entityRelationEdgeStyle;fontSize=12;html=1;endArrow=ERoneToMany;startArrow=ERmandOne;rounded=0;entryX=1;entryY=0;entryDx=0;entryDy=0;exitX=0;exitY=0.75;exitDx=0;exitDy=0;" parent="1" source="ImbisbdKscFU-QloxBs--6" target="ImbisbdKscFU-QloxBs--33" edge="1">
          <mxGeometry width="100" height="100" relative="1" as="geometry">
            <mxPoint x="-160" y="520" as="sourcePoint" />
            <mxPoint x="-60" y="420" as="targetPoint" />
          </mxGeometry>
        </mxCell>
        <mxCell id="uq9rbaYfmDos0nCKktpd-3" value="" style="edgeStyle=entityRelationEdgeStyle;fontSize=12;html=1;endArrow=ERzeroToMany;startArrow=ERmandOne;rounded=0;entryX=0.75;entryY=0;entryDx=0;entryDy=0;exitX=1;exitY=0;exitDx=0;exitDy=0;" parent="1" source="ImbisbdKscFU-QloxBs--2" target="ImbisbdKscFU-QloxBs--13" edge="1">
          <mxGeometry width="100" height="100" relative="1" as="geometry">
            <mxPoint x="380" y="-350" as="sourcePoint" />
            <mxPoint x="-252" y="-408" as="targetPoint" />
            <Array as="points">
              <mxPoint x="-577" y="-224" />
              <mxPoint x="-527" y="-304" />
            </Array>
          </mxGeometry>
        </mxCell>
        <mxCell id="uq9rbaYfmDos0nCKktpd-5" value="" style="edgeStyle=entityRelationEdgeStyle;fontSize=12;html=1;endArrow=ERoneToMany;startArrow=ERmandOne;rounded=0;entryX=1;entryY=0;entryDx=0;entryDy=0;exitX=0;exitY=0;exitDx=0;exitDy=0;" parent="1" source="ImbisbdKscFU-QloxBs--13" target="jkNDDFEouQgEQKBxvgv1-38" edge="1">
          <mxGeometry width="100" height="100" relative="1" as="geometry">
            <mxPoint x="-560" y="-260" as="sourcePoint" />
            <mxPoint x="-20" y="-110" as="targetPoint" />
            <Array as="points">
              <mxPoint x="360" y="-140" />
              <mxPoint x="240" y="-190" />
            </Array>
          </mxGeometry>
        </mxCell>
        <mxCell id="uq9rbaYfmDos0nCKktpd-7" value="" style="edgeStyle=entityRelationEdgeStyle;fontSize=12;html=1;endArrow=ERoneToMany;startArrow=ERmandOne;rounded=0;exitX=1;exitY=0;exitDx=0;exitDy=0;entryX=0;entryY=0;entryDx=0;entryDy=0;" parent="1" source="ImbisbdKscFU-QloxBs--14" target="ImbisbdKscFU-QloxBs--35" edge="1">
          <mxGeometry width="100" height="100" relative="1" as="geometry">
            <mxPoint x="150" y="-80" as="sourcePoint" />
            <mxPoint x="280" y="-30" as="targetPoint" />
          </mxGeometry>
        </mxCell>
        <mxCell id="uq9rbaYfmDos0nCKktpd-11" value="" style="edgeStyle=entityRelationEdgeStyle;fontSize=12;html=1;endArrow=ERzeroToMany;startArrow=ERmandOne;rounded=0;exitX=0;exitY=0.75;exitDx=0;exitDy=0;entryX=1;entryY=0.25;entryDx=0;entryDy=0;" parent="1" source="ImbisbdKscFU-QloxBs--14" target="jkNDDFEouQgEQKBxvgv1-40" edge="1">
          <mxGeometry width="100" height="100" relative="1" as="geometry">
            <mxPoint x="-260" y="290" as="sourcePoint" />
            <mxPoint x="-160" y="190" as="targetPoint" />
          </mxGeometry>
        </mxCell>
        <mxCell id="uq9rbaYfmDos0nCKktpd-12" value="" style="edgeStyle=entityRelationEdgeStyle;fontSize=12;html=1;endArrow=ERoneToMany;startArrow=ERzeroToMany;rounded=0;entryX=0;entryY=0;entryDx=0;entryDy=0;exitX=1;exitY=0;exitDx=0;exitDy=0;" parent="1" source="jkNDDFEouQgEQKBxvgv1-33" target="ImbisbdKscFU-QloxBs--6" edge="1">
          <mxGeometry width="100" height="100" relative="1" as="geometry">
            <mxPoint x="-260" y="420" as="sourcePoint" />
            <mxPoint x="-160" y="320" as="targetPoint" />
          </mxGeometry>
        </mxCell>
        <mxCell id="uq9rbaYfmDos0nCKktpd-13" value="" style="edgeStyle=entityRelationEdgeStyle;fontSize=12;html=1;endArrow=ERzeroToMany;startArrow=ERmandOne;rounded=0;exitX=0;exitY=0.5;exitDx=0;exitDy=0;entryX=1;entryY=0;entryDx=0;entryDy=0;" parent="1" source="ImbisbdKscFU-QloxBs--13" target="jkNDDFEouQgEQKBxvgv1-42" edge="1">
          <mxGeometry width="100" height="100" relative="1" as="geometry">
            <mxPoint x="-15" y="-30" as="sourcePoint" />
            <mxPoint x="-550" y="35" as="targetPoint" />
          </mxGeometry>
        </mxCell>
        <mxCell id="uq9rbaYfmDos0nCKktpd-15" value="" style="edgeStyle=entityRelationEdgeStyle;fontSize=12;html=1;endArrow=ERoneToMany;startArrow=ERmandOne;rounded=0;entryX=0.5;entryY=1;entryDx=0;entryDy=0;exitX=0;exitY=0;exitDx=0;exitDy=0;" parent="1" source="jkNDDFEouQgEQKBxvgv1-33" target="jkNDDFEouQgEQKBxvgv1-42" edge="1">
          <mxGeometry width="100" height="100" relative="1" as="geometry">
            <mxPoint x="-980" y="350" as="sourcePoint" />
            <mxPoint x="-980" y="260" as="targetPoint" />
          </mxGeometry>
        </mxCell>
        <mxCell id="uq9rbaYfmDos0nCKktpd-16" value="" style="edgeStyle=entityRelationEdgeStyle;fontSize=12;html=1;endArrow=ERoneToMany;startArrow=ERmandOne;rounded=0;entryX=0.75;entryY=1;entryDx=0;entryDy=0;exitX=0.5;exitY=0;exitDx=0;exitDy=0;" parent="1" source="jkNDDFEouQgEQKBxvgv1-32" target="jkNDDFEouQgEQKBxvgv1-40" edge="1">
          <mxGeometry width="100" height="100" relative="1" as="geometry">
            <mxPoint x="-890" y="640" as="sourcePoint" />
            <mxPoint x="-1000" y="430" as="targetPoint" />
          </mxGeometry>
        </mxCell>
        <mxCell id="uq9rbaYfmDos0nCKktpd-18" value="" style="edgeStyle=entityRelationEdgeStyle;fontSize=12;html=1;endArrow=ERoneToMany;startArrow=ERmandOne;rounded=0;exitX=0;exitY=0;exitDx=0;exitDy=0;entryX=1;entryY=0.5;entryDx=0;entryDy=0;" parent="1" source="ImbisbdKscFU-QloxBs--33" target="jkNDDFEouQgEQKBxvgv1-33" edge="1">
          <mxGeometry width="100" height="100" relative="1" as="geometry">
            <mxPoint x="-510" y="520" as="sourcePoint" />
            <mxPoint x="-600" y="480" as="targetPoint" />
          </mxGeometry>
        </mxCell>
        <mxCell id="uq9rbaYfmDos0nCKktpd-19" value="" style="edgeStyle=entityRelationEdgeStyle;fontSize=12;html=1;endArrow=ERoneToMany;startArrow=ERmandOne;rounded=0;exitX=1;exitY=0.75;exitDx=0;exitDy=0;entryX=0.5;entryY=0;entryDx=0;entryDy=0;" parent="1" source="IL2eg1wDKQudqtW4gH-I-4" target="ImbisbdKscFU-QloxBs--13" edge="1">
          <mxGeometry width="100" height="100" relative="1" as="geometry">
            <mxPoint x="-80" y="-50" as="sourcePoint" />
            <mxPoint x="60" y="-230" as="targetPoint" />
          </mxGeometry>
        </mxCell>
        <mxCell id="K5x0mGCNyCkddetX59r--1" value="" style="edgeStyle=entityRelationEdgeStyle;fontSize=12;html=1;endArrow=ERoneToMany;startArrow=ERmandOne;rounded=0;exitX=0.5;exitY=1;exitDx=0;exitDy=0;entryX=0;entryY=0.5;entryDx=0;entryDy=0;" parent="1" source="jkNDDFEouQgEQKBxvgv1-32" target="ImbisbdKscFU-QloxBs--47" edge="1">
          <mxGeometry width="100" height="100" relative="1" as="geometry">
            <mxPoint x="-170" y="775" as="sourcePoint" />
            <mxPoint x="-370" y="725" as="targetPoint" />
          </mxGeometry>
        </mxCell>
        <mxCell id="KxU-wT-g2kHDbWx1DJIo-1" value="" style="edgeStyle=entityRelationEdgeStyle;fontSize=12;html=1;endArrow=ERoneToMany;startArrow=ERmandOne;rounded=0;entryX=0.25;entryY=0;entryDx=0;entryDy=0;exitX=0.25;exitY=1;exitDx=0;exitDy=0;" parent="1" source="jkNDDFEouQgEQKBxvgv1-38" target="jkNDDFEouQgEQKBxvgv1-32" edge="1">
          <mxGeometry width="100" height="100" relative="1" as="geometry">
            <mxPoint x="-810" y="50" as="sourcePoint" />
            <mxPoint x="-980" y="140" as="targetPoint" />
          </mxGeometry>
        </mxCell>
      </root>
    </mxGraphModel>
  </diagram>
</mxfile>
